id;first_name;last_name;email;phone_number
1;Magnus;Cassin;magnus@gmail.com;+201091166721
2;Enid;Jenkins;enid@gmail.com;+201091166722
3;Destinee;Muller;destinee@gmail.com;+201091166723
4;Brook;Bosco;brook@gmail.com;+201091166724
5;Roscoe;Schumm;roscoe@gmail.com;+201091166725
6;Laney;McDermott;laney@gmail.com;+201091166726
7;Orie;Gerlach;orie@gmail.com;+201091166727
8;Marina;Moore;marina@gmail.com;+201091166728
9;Consuelo;Zboncak;consuelo@gmail.com;+201091166790
10;Zelda;Murazik;zelda@gmail.com;+201091166710
